No.,Change Date,Lending Account Number,Product,Credit Line Old,Credit Line New,Correction Type,Done By User
1,2021-11-28,Acct001,PAYLATER,1500,2000,Increase Credit Line,Robot
2,2021-11-29,Acct002,PAYLATER,2000,1500,Decrease Credit Line,Robot
3,2021-11-29,Acct004,PAYLATER,,1500,New Loan,Robot
4,2021-11-29,Acct003,PAYLATER,2000,1500,Decrease Credit Line,Robot
5,2021-11-30,Acct005,PAYLATER,,1500,New Loan,Robot
6,2021-11-30,Acct006,PAYLATER,,1500,New Loan,Robot
7,2021-11-30,Acct007,PAYLATER,2000,1500,Decrease Credit Line,Robot
